Data Structures and Manipulations
…
gapminder2007[wealthy | healthy, ]

# A tibble: 44 × 6
   country    continent  year lifeExp      pop gdpPercap
   <fct>      <fct>     <int>   <dbl>    <int>     <dbl>
 1 Albania    Europe     2007    76.4  3600523     5937.
 2 Argentina  Americas   2007    75.3 40301927    12779.
 3 Australia  Oceania    2007    81.2 20434176    34435.
 4 Austria    Europe     2007    79.8  8199783    36126.
 5 Bahrain    Asia       2007    75.6   708573    29796.
 6 Belgium    Europe     2007    79.4 10392226    33693.
 7 Canada     Americas   2007    80.7 33390141    36319.
 8 Chile      Americas   2007    78.6 16284741    13172.
 9 Costa Rica Americas   2007    78.8  4133884     9645.
10 Croatia    Europe     2007    75.7  4493312    14619.
# ℹ 34 more rows
…
